Final Project
…
Code

tibble(sims = sim_r_sq)

# A tibble: 1,001 × 1
    sims
   <dbl>
 1 1    
 2 0.318
 3 0.303
 4 0.258
 5 0.364
 6 0.236
 7 0.342
 8 0.331
 9 0.289
10 0.381
# ℹ 991 more rows
…
